Introduction to Generalized Additive Models (GAM) in R
…
Generalized Additive Model (GAM) formula and fit

Coding example: single predictor

Coding example: multiple predictors

GAM with non-Gaussian outcome

Model selection: when to use smooth term?

Motivating example

dat

# A tibble: 500 x 4
         y     x1     x2    x3
     <dbl>  <dbl>  <dbl> <int>
 1 -0.424  0.288  0.354      0
 2  1.32   0.788  0.366      1
 3 -0.186  0.409  0.287      0
 4  0.666  0.883  0.0800     1
 5  0.181  0.940  0.365      1
 6  0.491  0.0456 0.178      0
 7  2.82   0.528  0.536      1
 8  0.0930 0.892  0.504      0
 9  1.09   0.551  0.945      0
10  0.939  0.457  0.341      0
#  with 490 more rows
…
